......
----------------------------------------------------------------------
Ran 6 tests in 0.001s

OK
Name               Stmts   Miss Branch BrPart  Cover   Missing
--------------------------------------------------------------
Diplomacy.py          98      0     72      3    98%   33->36, 89->48, 116->105
TestDiplomacy.py      36      0      0      0   100%
--------------------------------------------------------------
TOTAL                134      0     72      3    99%
