.......
----------------------------------------------------------------------
Ran 7 tests in 0.000s
OK
Name             Stmts   Miss Branch BrPart  Cover   Missing
------------------------------------------------------------
Diplomacy.py          12      0      2      0   100%
TestDiplomacy.py      32      0      0      0   100%
------------------------------------------------------------
TOTAL               44      0      2      0   100%